360504 443727 449
113211 240574 443
465284 242537 449
625238 661205 509
203085 115179 383
679898 681302 336
393389 150691 443
638291 741871 504
198612 751141 509
302160 277718 389
434368 595220 470
850324 125147 525
552345 827295 509
740639 658252 504
20900 365316 443
553407 509341 470
330919 627315 509
168690 511959 470
410041 760690 509
189568 215982 373
237052 621096 470
146179 263462 443
210062 588457 470
641222 381121 509
37029 126482 354
426636 640874 509
285251 389029 441
833275 63244 509
347628 251763 441
810661 90206 509
857858 200780 525
372294 633809 509
714105 41205 509
683457 714782 504
851299 598258 525
673137 441421 509
535900 170877 470
599398 243177 470
743761 763697 424
48428 565661 470
621691 867049 525
601513 854195 525
526365 176609 470
61271 401582 443
680436 744413 504
88781 212392 383
785006 831206 468
166595 740900 509
880059 786402 525
669120 492676 509
750034 816435 468
191516 740879 509
530396 814875 509
160969 297485 443
882886 18376 525
730114 596929 509
672067 321425 509
331357 295073 384
693851 229774 509
753004 359952 509
477896 457579 444
783329 532397 509
710059 176475 509
57106 864418 525
98531 606158 470
230649 1154 443
637885 595532 509
5993 358220 443
308895 281065 389
522648 260448 470
388868 524732 470
736209 450298 509
337118 227754 443
7112 744629 509
63310 388332 443
429963 117062 449
882586 421662 525
844115 609807 525
610686 688747 509
679558 833632 504
654747 86857 509
208663 597558 470
811004 638979 504
593985 220889 470
189316 582179 470
345062 419346 449
846266 395532 525
323034 424387 449
823516 527124 509
660893 890158 525
456157 876587 525
699346 66106 509
437008 664754 509
73472 464893 449
597113 775208 509
323774 35091 443
390132 183885 443
246713 355995 441
648903 502331 509
644449 507969 509
516113 647828 509
581254 235867 470
537869 519323 408
104953 115381 354
648869 601943 509
345760 52566 443
270961 644848 509
61971 295326 443
393062 157271 443
162283 312307 443
399715 845830 525
397828 99444 443
768031 872516 525
683569 607279 509
858298 647273 525
778292 243253 509
782248 881639 525
125207 892298 525
344788 820689 509
331042 316347 384
219940 739320 509
640512 338812 509
439799 435924 400
445185 293581 449
346515 581579 470
451019 519772 470
881616 586122 525
317209 613256 470
764433 23789 509
170503 103875 383
541962 220618 470
293778 713310 509
776165 743375 468
685391 862718 525
871560 345502 525
386744 641549 509
335876 219443 443
779469 19352 509
709601 676636 504
460774 680916 509
396479 426625 449
215778 891770 525
376286 54885 443
718979 455820 509
883695 605385 525
713579 209839 509
792569 458320 509
436943 110549 449
153759 156071 352
183287 709189 509
696240 271179 509
320530 75767 443
16422 128956 354
107255 630576 509
648497 494320 509
587875 664122 509
829878 107562 509
279312 178239 443
250142 106963 443
600934 260979 470
199260 107509 383
340932 415759 449
411543 214471 449
697001 101287 509
35353 238160 443
776931 2946 509
245501 841933 525
795559 448609 509
855154 99343 525
758589 802255 468
877165 558324 525
480882 217308 449
230926 110385 443
347071 308260 441
790138 341002 509
85763 603938 470
819387 893765 525
395055 378697 436
852905 715305 525
726757 18817 509
327668 660603 509
9443 770590 509
494732 329029 449
566339 233832 470
797690 670300 504
663063 209978 509
25183 746522 509
102362 687466 509
115594 261553 443
168232 48751 383
16372 872199 525
710207 413084 509
877865 77039 525
450087 387129 449
592121 638208 509
688015 281470 509
870796 829016 525
182566 365279 443
93136 516036 470
480387 273656 449
744924 478122 509
274932 152594 443
12368 736809 509
180961 225036 386
791089 122621 509
21736 588157 470
819676 730059 468
539224 106800 470
349744 320375 441
654097 250889 509
519951 415713 470
21989 635686 509
110174 390800 443
855198 762917 525
813826 709083 468
504890 728081 509
581241 869074 525
527898 754657 509
755133 823612 468
194314 239473 443
140320 509869 449
527325 545142 408
324219 81149 443
305144 455282 449
792052 162857 509
696365 216109 509
561294 464513 470
44716 424078 449
293555 867269 525
566932 83351 470
628924 72111 509
578363 49204 470
827742 837775 419
114895 193862 383
497826 259387 449
176958 379814 443
731377 738930 424
881572 202282 525
175099 876849 525
771832 767355 468
809518 770483 468
799675 305160 509
119038 539457 470
467459 878499 525
292981 310784 371
586586 536557 452
509657 187130 449
787309 480533 509
20467 290574 443
192873 453491 449
