1 10 20
11 20 21
21 30 112
31 40 107
41 50 110
51 60 113
61 70 108
71 80 116
81 90 111
91 100 119
101 110 114
111 120 70
121 130 122
131 140 91
141 150 117
151 160 86
161 170 112
171 180 125
181 190 107
191 200 120
201 210 89
211 220 115
221 230 115
231 240 128
241 250 110
251 260 123
261 270 123
271 280 92
281 290 118
291 300 118
301 310 87
311 320 131
321 330 144
331 340 113
341 350 126
351 360 126
361 370 95
371 380 108
381 390 121
391 400 121
401 410 41
411 420 134
421 430 103
431 440 116
441 450 116
451 460 129
461 470 129
471 480 129
481 490 142
491 500 142
501 510 111
511 520 124
521 530 124
531 540 124
541 550 137
551 560 137
561 570 106
571 580 119
581 590 119
591 600 119
601 610 132
611 620 132
621 630 132
631 640 132
641 650 145
651 660 145
661 670 145
671 680 114
681 690 127
691 700 127
701 710 171
711 720 65
721 730 96
731 740 140
741 750 96
751 760 140
761 770 153
771 780 153
781 790 122
791 800 122
801 810 73
811 820 135
821 830 135
831 840 135
841 850 60
851 860 148
861 870 148
871 880 179
881 890 148
891 900 117
901 910 117
911 920 130
921 930 130
931 940 174
941 950 130
951 960 130
961 970 143
971 980 143
981 990 143
991 1000 112
1001 1010 143
1011 1020 156
1021 1030 125
1031 1040 156
1041 1050 125
1051 1060 169
1061 1070 125
1071 1080 169
1081 1090 138
1091 1100 138
1101 1110 138
1111 1120 138
1121 1130 138
1131 1140 107
1141 1150 151
1151 1160 151
1161 1170 182
1171 1180 120
1181 1190 151
1191 1200 120
1201 1210 71
1211 1220 164
1221 1230 133
1231 1240 133
1241 1250 177
1251 1260 133
1261 1270 177
1271 1280 133
1281 1290 146
1291 1300 146
1301 1310 177
1311 1320 146
1321 1330 115
1331 1340 146
1341 1350 115
1351 1360 159
1361 1370 128
1371 1380 159
1381 1390 128
1391 1400 128
1401 1410 172
1411 1420 128
1421 1430 66
1431 1440 128
1441 1450 141
1451 1460 141
1461 1470 141
1471 1480 172
1481 1490 141
1491 1500 92
1501 1510 141
1511 1520 154
1521 1530 154
1531 1540 154
1541 1550 154
1551 1560 154
1561 1570 154
1571 1580 123
1581 1590 167
1591 1600 123
1601 1610 167
1611 1620 74
1621 1630 136
1631 1640 136
1641 1650 136
1651 1660 136
1661 1670 180
1671 1680 136
1681 1690 43
1691 1700 180
1701 1710 149
1711 1720 149
1721 1730 149
1731 1740 149
1741 1750 180
1751 1760 149
1761 1770 149
1771 1780 149
1781 1790 100
1791 1800 118
1801 1810 162
1811 1820 162
1821 1830 162
1831 1840 162
1841 1850 131
1851 1860 131
1861 1870 131
1871 1880 175
1881 1890 131
1891 1900 175
1901 1910 131
1911 1920 175
1921 1930 144
1931 1940 144
1941 1950 144
1951 1960 175
1961 1970 175
1971 1980 144
1981 1990 113
1991 2000 113
2001 2010 144
2011 2020 113
2021 2030 157
2031 2040 157
2041 2050 157
2051 2060 126
2061 2070 157
2071 2080 126
2081 2090 126
2091 2100 126
500 1500 182
1500 2500 209
2500 3500 217
3500 4500 238
4500 5500 210
5500 6500 262
6500 7500 257
7500 8500 252
8500 9500 260
9500 10500 255
10500 11500 268
11500 12500 263
12500 13500 276
13500 14500 258
14500 15500 271
15500 16500 266
16500 17500 266
17500 18500 279
18500 19500 261
19500 20500 274
20500 21500 256
21500 22500 269
22500 23500 269
23500 24500 282
24500 25500 264
25500 26500 277
26500 27500 308
27500 28500 259
28500 29500 272
29500 30500 272
30500 31500 285
31500 32500 285
32500 33500 267
33500 34500 311
34500 35500 311
35500 36500 324
36500 37500 262
37500 38500 306
38500 39500 275
39500 40500 306
40500 41500 288
41500 42500 288
42500 43500 257
43500 44500 270
44500 45500 314
45500 46500 283
46500 47500 314
47500 48500 283
48500 49500 296
49500 50500 296
